^C:\UNIVER_FOLDER\LFPC\LAB_1\DEBUG\LAB_1.OBJ
/OUT:"C:\UNIVER_FOLDER\LFPC\LAB_1\DEBUG\LAB_1.EXE" /INCREMENTAL /NOLOGO KERNEL32.LIB USER32.LIB GDI32.LIB WINSPOOL.LIB COMDLG32.LIB ADVAPI32.LIB SHELL32.LIB OLE32.LIB OLEAUT32.LIB UUID.LIB ODBC32.LIB ODBCCP32.LIB /MANIFEST /MANIFESTUAC:"level='asInvoker' uiAccess='false'" /manifest:embed /DEBUG:FASTLINK /PDB:"C:\UNIVER_FOLDER\LFPC\LAB_1\DEBUG\LAB_1.PDB" /SUBSYSTEM:CONSOLE /TLBID:1 /DYNAMICBASE /NXCOMPAT /IMPLIB:"C:\UNIVER_FOLDER\LFPC\LAB_1\DEBUG\LAB_1.LIB" /MACHINE:X86 DEBUG\LAB_1.OBJ
^C:\UNIVER_FOLDER\LFPC\LFPC\LAB_1\DEBUG\LAB_1.OBJ
/OUT:"C:\UNIVER_FOLDER\LFPC\LFPC\LAB_1\DEBUG\LAB_1.EXE" /INCREMENTAL /NOLOGO KERNEL32.LIB USER32.LIB GDI32.LIB WINSPOOL.LIB COMDLG32.LIB ADVAPI32.LIB SHELL32.LIB OLE32.LIB OLEAUT32.LIB UUID.LIB ODBC32.LIB ODBCCP32.LIB /MANIFEST /MANIFESTUAC:"level='asInvoker' uiAccess='false'" /manifest:embed /DEBUG:FASTLINK /PDB:"C:\UNIVER_FOLDER\LFPC\LFPC\LAB_1\DEBUG\LAB_1.PDB" /SUBSYSTEM:CONSOLE /TLBID:1 /DYNAMICBASE /NXCOMPAT /IMPLIB:"C:\UNIVER_FOLDER\LFPC\LFPC\LAB_1\DEBUG\LAB_1.LIB" /MACHINE:X86 DEBUG\LAB_1.OBJ
^C:\UNIVER_FOLDER\LFPC\LFPC\LAB_1\DEBUG\LAB_1.2.OBJ|C:\UNIVER_FOLDER\LFPC\LFPC\LAB_1\DEBUG\LAB_1.OBJ
/OUT:"C:\UNIVER_FOLDER\LFPC\LFPC\LAB_1\DEBUG\LAB_1.EXE" /INCREMENTAL /NOLOGO KERNEL32.LIB USER32.LIB GDI32.LIB WINSPOOL.LIB COMDLG32.LIB ADVAPI32.LIB SHELL32.LIB OLE32.LIB OLEAUT32.LIB UUID.LIB ODBC32.LIB ODBCCP32.LIB /MANIFEST /MANIFESTUAC:"level='asInvoker' uiAccess='false'" /manifest:embed /DEBUG:FASTLINK /PDB:"C:\UNIVER_FOLDER\LFPC\LFPC\LAB_1\DEBUG\LAB_1.PDB" /SUBSYSTEM:CONSOLE /TLBID:1 /DYNAMICBASE /NXCOMPAT /IMPLIB:"C:\UNIVER_FOLDER\LFPC\LFPC\LAB_1\DEBUG\LAB_1.LIB" /MACHINE:X86 DEBUG\LAB_1.OBJ
DEBUG\LAB_1.2.OBJ
